<svg width="16" height="16" viewBox="0 0 16 16" fill="none" xmlns="http://www.w3.org/2000/svg">
<path d="M15.6126 14.9585L11.8632 11.2094C14.18 8.5548 14.0763 4.50914 11.5486 1.98144C10.271 0.703663 8.57208 0 6.76513 0C4.95818 0 3.25922 0.703663 1.98144 1.98144C0.703663 3.25902 0 4.95798 0 6.76493C0 8.57208 0.703663 10.2706 1.98144 11.5484C3.25922 12.826 4.95798 13.5297 6.76493 13.5297C8.31665 13.5297 9.78824 13.0092 10.9824 12.0534L14.7499 15.8212C14.8691 15.9404 15.0252 16 15.1812 16C15.3372 16 15.4934 15.9404 15.6126 15.8212C15.8509 15.5831 15.8509 15.1967 15.6126 14.9585ZM2.84414 10.6857C1.79698 9.63856 1.22023 8.24608 1.22023 6.76493C1.22023 5.28378 1.79698 3.8915 2.84414 2.84435C3.8915 1.79699 5.28398 1.22023 6.76513 1.22023C8.24649 1.22023 9.63856 1.79699 10.6859 2.84414C12.8478 5.00618 12.8478 8.52388 10.6859 10.6859C9.63876 11.7329 8.24608 12.3096 6.76493 12.3096C5.28398 12.3098 3.8915 11.7331 2.84414 10.6857Z" fill="black"/>
</svg>
