<svg width="32" height="32" viewBox="0 0 32 32" fill="none" xmlns="http://www.w3.org/2000/svg">
<rect x="0.5" y="0.5" width="31" height="31" fill="white" stroke="white"/>
<path d="M12.6158 20.23C11.4578 20.2085 10.4453 19.5891 9.87638 18.6675C10.2332 18.6599 10.5803 18.6079 10.9101 18.5184L10.8776 17.5456C9.57136 17.2836 8.5998 16.2634 8.32195 15.0626C8.67767 15.1718 9.05298 15.2361 9.4403 15.2486L11.1873 15.3049L9.73438 14.3332C8.48262 13.496 7.99792 11.9602 8.42319 10.6091C10.3569 12.6664 13.0549 13.9976 16.0646 14.1484L16.7273 14.1816L16.5766 13.5355C16.0972 11.4798 17.6574 9.5 19.7789 9.5C20.7247 9.5 21.5793 9.89894 22.1782 10.5378L22.3677 10.74L22.6396 10.6865C23.0061 10.6143 23.3637 10.5175 23.7107 10.3979C23.5083 10.6083 23.278 10.7919 23.0259 10.9429L23.3421 11.8683C23.5497 11.8435 23.7548 11.811 23.9572 11.771C23.7417 11.9714 23.5139 12.1585 23.2753 12.3309L23.0565 12.489L23.0686 12.7587C23.2982 17.8537 19.4996 23.5 12.805 23.5C11.4669 23.5 10.1894 23.2427 9.01758 22.7761C10.4273 22.5822 11.7714 22.0201 12.915 21.1234L14.0212 20.2561L12.6158 20.23Z" fill="#242728" stroke="#242728"/>
</svg>
